<svg xmlns="http://www.w3.org/2000/svg" id="Group_147" width="47.84" height="32.854" data-name="Group 147" viewBox="0 0 47.84 32.854">
    <defs>
        <style>
            .cls-1{fill:#072c28}
        </style>
    </defs>
    <g id="Group_145" data-name="Group 145" transform="translate(20.232)">
        <g id="Group_143" data-name="Group 143" transform="translate(0 .075)">
            <path id="Path_402" d="M162.182 548.831c.489-.86 1.124-1.934 1.782-3.106 1.541-2.742 3.212-6.021 3.464-8.373l-.119.137c-.433.5-.907.919-1.37 1.383-1.226 1.228-2.057 2.767-3.231 4.032-2.552 2.747-4.836 5.705-7.246 8.573-2.43 2.892-5.087 5.575-7.658 8.34-1.313 1.412-2.492 2.941-3.705 4.439-.786.972-1.582 2.612-2.89 2.912-.318.073-.591-.358-.268-.548a6.418 6.418 0 0 0 1.736-1.9c.517-.669 1.056-1.322 1.587-1.981 1.119-1.392 2.237-2.76 3.456-4.066 2.562-2.748 5.212-5.43 7.581-8.349 1.251-1.542 2.49-3.094 3.772-4.609 1.226-1.45 2.638-2.8 3.759-4.326a29.717 29.717 0 0 1 3.028-3.6c.18-.179.352-.368.521-.559-6.548.816-14.865 8.174-18.707 12.663a33.867 33.867 0 0 0-6.146 11.641c-.654 1.989-1.19 3.963-1.689 5.992.049-.2 1.369.025 1.516.043a8.26 8.26 0 0 1 .872.13 10.918 10.918 0 0 1 1.141.388 5.184 5.184 0 0 1 .9-.829c1.768-1.524 3.993-2.392 5.858-3.781a37.844 37.844 0 0 0 6.564-6.577 59.512 59.512 0 0 0 5.492-8.069z" class="cls-1" data-name="Path 402" transform="translate(-139.838 -537.227)"/>
        </g>
        <g id="Group_144" data-name="Group 144" transform="translate(.958)">
            <path id="Path_403" d="M165.337 541.192c-1.121 1.529-2.533 2.876-3.759 4.325-1.282 1.516-2.521 3.068-3.772 4.609-2.37 2.92-5.019 5.6-7.581 8.349-1.219 1.307-2.337 2.674-3.456 4.066-.531.659-1.069 1.312-1.587 1.981a6.417 6.417 0 0 1-1.736 1.9c-.323.19-.05.621.268.548 1.308-.3 2.1-1.94 2.89-2.912 1.213-1.5 2.392-3.026 3.705-4.439 2.571-2.765 5.227-5.448 7.658-8.34 2.41-2.868 4.694-5.826 7.246-8.573 1.175-1.265 2.005-2.8 3.231-4.032.463-.464.938-.886 1.371-1.383l.119-.137c.007-.067.014-.134.018-.2a9.22 9.22 0 0 0-1.066.075c-.17.191-.342.38-.521.559a29.711 29.711 0 0 0-3.028 3.604z" class="cls-1" data-name="Path 403" transform="translate(-143.302 -536.954)"/>
        </g>
    </g>
    <g id="Group_146" data-name="Group 146" transform="translate(0 1.516)">
        <path id="Path_404" d="M87.452 571.781a12.456 12.456 0 0 1-1.238-3.52 7.164 7.164 0 0 1 .042-1.671 24.972 24.972 0 0 0-.018-2.568 29.286 29.286 0 0 0-.369-4.172 13.811 13.811 0 0 0-1.9-4.794 23.713 23.713 0 0 0-6.38-6.793 54.473 54.473 0 0 0-8.966-5.671c-.9-.431-2.119.078-1.958 1.049a57.694 57.694 0 0 0 1.861 8.817 60.475 60.475 0 0 0 2.99 8.535 26.1 26.1 0 0 0 5.753 7.419 46.021 46.021 0 0 0 3.772 3.1 12.429 12.429 0 0 0 4.231 2.238.845.845 0 0 0 .506-.026c1.11.146 2.303-.713 1.674-1.943z" class="cls-1" data-name="Path 404" transform="translate(-66.648 -542.438)"/>
    </g>
</svg>
